…
## Problem 2

``` r
# create the data frame
df_p2 <- tibble(
  x = rnorm(500),
  y = rnorm(500),
  logical_vector = (x + y) > 1,
  numeric_vector = as.numeric(logical_vector),
  factor_vector = as.factor(logical_vector)
)

# display the data frame
df_p2
## # A tibble: 500 x 5
##          x      y logical_vector numeric_vector factor_vector
##      <dbl>  <dbl> <lgl>                   <dbl> <fct>        
##  1 -0.897  -0.460 FALSE                       0 FALSE        
##  2  0.185   0.618 FALSE                       0 FALSE        
##  3  1.59   -0.720 FALSE                       0 FALSE        
##  4 -1.13   -0.584 FALSE                       0 FALSE        
##  5 -0.0803  0.216 FALSE                       0 FALSE        
##  6  0.132   1.24  TRUE                        1 TRUE         
##  7  0.708  -0.768 FALSE                       0 FALSE        
##  8 -0.240   1.21  FALSE                       0 FALSE        
##  9  1.98   -1.14  FALSE                       0 FALSE        
## 10 -0.139   1.47  TRUE                        1 TRUE         
## # … with 490 more rows
```
…
